Explanatory Data Analysis
…
carmarket %>%
  group_by(Brand, Gear) %>%
  summarize(gear_type_count = n())  %>%
  mutate(gear_type_percentage = gear_type_count / sum(gear_type_count)) %>%
  select(Brand, Gear, gear_type_percentage) %>%
  pivot_wider(id_cols = Brand, names_from = Gear, values_from = gear_type_percentage)

## # A tibble: 35 x 4
## # Groups:   Brand [35]
##    Brand      Automatic  Manual `Semi Automatic`
##    <chr>          <dbl>   <dbl>            <dbl>
##  1 Acura        0.488    0.463            0.0488
##  2 Alfa Romeo   0.353    0.471            0.176 
##  3 Audi         0.337    0.0349           0.628 
##  4 BMW          0.515    0.0747           0.411 
##  5 Chevrolet    0.394    0.512            0.0945
##  6 Chrysler     1       NA               NA     
##  7 Citroen      0.136    0.714            0.151 
##  8 Dacia        0.00929  0.969            0.0217
##  9 Fiat         0.0429   0.841            0.116 
## 10 Ford         0.135    0.691            0.174 
## # ... with 25 more rows
…
